{
  "project_info": {
    "project_number": "306088687399",
    "firebase_url": "https://loginkotlin-94378.firebaseio.com",
    "project_id": "loginkotlin-94378",
    "storage_bucket": "loginkotlin-94378.appspot.com"
  },
  "client": [
    {
      "client_info": {
        "mobilesdk_app_id": "1:306088687399:android:947d75f296ea2c736f1b02",
        "android_client_info": {
          "package_name": "com.example.loginkotlin"
        }
      },
      "oauth_client": [
        {
          "client_id": "306088687399-vtiduqqrkej0sck71n4aqngffe9gclo1.apps.googleusercontent.com",
          "client_type": 3
        }
      ],
      "api_key": [
        {
          "current_key": "AIzaSyBH2BDl1TDEx1fZCOu_Q_mUm31LXKQ1P30"
        }
      ],
      "services": {
        "appinvite_service": {
          "other_platform_oauth_client": [
            {
              "client_id": "306088687399-vtiduqqrkej0sck71n4aqngffe9gclo1.apps.googleusercontent.com",
              "client_type": 3
            }
          ]
        }
      }
    }
  ],
  "configuration_version": "1"
}